{
  "kind": "collectionType",
  "collectionName": "questions",
  "info": {
    "singularName": "question",
    "pluralName": "questions",
    "displayName": "Question",
    "description": ""
  },
  "options": {
    "draftAndPublish": false
  },
  "pluginOptions": {
    "i18n": {
      "localized": true
    }
  },
  "attributes": {
    "question": {
      "type": "string",
      "pluginOptions": {
        "i18n": {
          "localized": true
        }
      }
    },
    "application_form": {
      "type": "relation",
      "relation": "manyToOne",
      "target": "api::application-form.application-form",
      "inversedBy": "questions"
    },
    "options": {
      "pluginOptions": {
        "i18n": {
          "localized": true
        }
      },
      "type": "json"
    },
    "type": {
      "pluginOptions": {
        "i18n": {
          "localized": true
        }
      },
      "type": "enumeration",
      "enum": [
        "boolean",
        "multiple",
        "single",
        "text"
      ]
    }
  }
}
