29/Mar/2021:01:22:18 +0200
28/Mar/2021:00:43:11 +0100
26/Mar/2021:11:35:09 +0100
26/Mar/2021:18:01:55 +0100
27/Mar/2021:00:13:56 +0100
25/Mar/2021:11:29:57 +0100
25/Mar/2021:18:07:32 +0100
26/Mar/2021:00:43:55 +0100
24/Mar/2021:16:15:37 +0100
24/Mar/2021:16:17:20 +0100
24/Mar/2021:16:17:50 +0100
24/Mar/2021:23:44:25 +0100
25/Mar/2021:00:08:56 +0100
24/Mar/2021:00:05:51 +0100
22/Mar/2021:06:37:35 +0100
22/Mar/2021:11:06:23 +0100
22/Mar/2021:17:26:10 +0100
23/Mar/2021:00:14:06 +0100
21/Mar/2021:07:11:06 +0100
21/Mar/2021:09:15:37 +0100
21/Mar/2021:13:16:21 +0100
21/Mar/2021:19:09:31 +0100
21/Mar/2021:22:28:02 +0100
22/Mar/2021:00:16:02 +0100
20/Mar/2021:10:05:34 +0100
19/Mar/2021:08:00:16 +0100
19/Mar/2021:08:51:42 +0100
19/Mar/2021:13:01:05 +0100
19/Mar/2021:14:13:18 +0100
19/Mar/2021:14:46:48 +0100
19/Mar/2021:14:58:37 +0100
19/Mar/2021:16:14:35 +0100
19/Mar/2021:16:45:51 +0100
19/Mar/2021:17:21:05 +0100
19/Mar/2021:17:55:15 +0100
19/Mar/2021:17:55:37 +0100
19/Mar/2021:17:59:27 +0100
19/Mar/2021:18:04:56 +0100
19/Mar/2021:18:05:00 +0100
19/Mar/2021:18:05:03 +0100
19/Mar/2021:18:21:36 +0100
19/Mar/2021:20:48:34 +0100
19/Mar/2021:21:12:42 +0100
19/Mar/2021:21:18:45 +0100
19/Mar/2021:21:31:48 +0100
19/Mar/2021:21:34:23 +0100
19/Mar/2021:21:50:11 +0100
19/Mar/2021:22:19:22 +0100
19/Mar/2021:22:20:00 +0100
19/Mar/2021:22:31:51 +0100
19/Mar/2021:22:38:59 +0100
19/Mar/2021:22:39:06 +0100
19/Mar/2021:22:39:13 +0100
19/Mar/2021:23:05:03 +0100
19/Mar/2021:23:05:41 +0100
19/Mar/2021:23:26:23 +0100
19/Mar/2021:23:52:59 +0100
18/Mar/2021:07:14:01 +0100
18/Mar/2021:08:37:46 +0100
18/Mar/2021:08:56:25 +0100
18/Mar/2021:08:56:44 +0100
18/Mar/2021:09:22:31 +0100
18/Mar/2021:10:03:11 +0100
18/Mar/2021:11:15:05 +0100
18/Mar/2021:13:10:30 +0100
18/Mar/2021:16:18:25 +0100
18/Mar/2021:17:51:06 +0100
18/Mar/2021:20:16:10 +0100
18/Mar/2021:20:46:20 +0100
18/Mar/2021:22:36:19 +0100
18/Mar/2021:22:37:18 +0100
18/Mar/2021:22:37:54 +0100
18/Mar/2021:22:57:30 +0100
19/Mar/2021:00:12:10 +0100
19/Mar/2021:01:19:33 +0100
17/Mar/2021:07:29:35 +0100
17/Mar/2021:07:38:41 +0100
17/Mar/2021:11:17:37 +0100
17/Mar/2021:11:51:36 +0100
17/Mar/2021:12:56:00 +0100
17/Mar/2021:13:21:55 +0100
17/Mar/2021:13:23:39 +0100
17/Mar/2021:14:41:04 +0100
17/Mar/2021:15:04:10 +0100
17/Mar/2021:15:21:14 +0100
17/Mar/2021:16:20:41 +0100
17/Mar/2021:16:42:02 +0100
17/Mar/2021:16:44:05 +0100
17/Mar/2021:17:05:59 +0100
17/Mar/2021:17:10:22 +0100
17/Mar/2021:17:11:14 +0100
17/Mar/2021:17:17:04 +0100
17/Mar/2021:17:17:59 +0100
17/Mar/2021:17:19:05 +0100
17/Mar/2021:17:22:56 +0100
17/Mar/2021:17:25:43 +0100
17/Mar/2021:17:32:08 +0100
17/Mar/2021:17:36:58 +0100
17/Mar/2021:17:44:33 +0100
17/Mar/2021:17:51:09 +0100
17/Mar/2021:17:53:05 +0100
17/Mar/2021:17:54:18 +0100
17/Mar/2021:17:54:32 +0100
17/Mar/2021:18:03:07 +0100
17/Mar/2021:18:03:37 +0100
17/Mar/2021:18:06:42 +0100
17/Mar/2021:18:14:24 +0100
17/Mar/2021:18:16:05 +0100
17/Mar/2021:18:18:51 +0100
17/Mar/2021:18:19:10 +0100
17/Mar/2021:18:24:29 +0100
17/Mar/2021:18:27:03 +0100
17/Mar/2021:18:34:09 +0100
17/Mar/2021:18:38:55 +0100
17/Mar/2021:18:51:43 +0100
17/Mar/2021:18:52:05 +0100
17/Mar/2021:19:20:40 +0100
17/Mar/2021:19:41:19 +0100
17/Mar/2021:19:47:19 +0100
17/Mar/2021:19:52:25 +0100
17/Mar/2021:19:53:10 +0100
17/Mar/2021:20:06:32 +0100
17/Mar/2021:20:13:47 +0100
17/Mar/2021:20:13:57 +0100
17/Mar/2021:20:25:26 +0100
17/Mar/2021:20:26:31 +0100
17/Mar/2021:20:31:02 +0100
17/Mar/2021:21:03:51 +0100
17/Mar/2021:21:05:31 +0100
17/Mar/2021:21:22:39 +0100
17/Mar/2021:21:36:19 +0100
17/Mar/2021:21:39:19 +0100
17/Mar/2021:21:40:02 +0100
17/Mar/2021:21:55:05 +0100
17/Mar/2021:21:55:29 +0100
17/Mar/2021:22:00:02 +0100
17/Mar/2021:22:13:59 +0100
17/Mar/2021:22:31:27 +0100
17/Mar/2021:22:39:50 +0100
17/Mar/2021:23:37:49 +0100
18/Mar/2021:00:36:10 +0100
18/Mar/2021:04:17:25 +0100
16/Mar/2021:10:37:15 +0100
16/Mar/2021:10:56:26 +0100
16/Mar/2021:10:56:39 +0100
16/Mar/2021:10:56:50 +0100
16/Mar/2021:10:59:11 +0100
16/Mar/2021:11:01:50 +0100
16/Mar/2021:11:04:11 +0100
16/Mar/2021:11:39:11 +0100
16/Mar/2021:11:39:27 +0100
16/Mar/2021:12:38:45 +0100
16/Mar/2021:13:08:28 +0100
16/Mar/2021:13:56:01 +0100
16/Mar/2021:15:33:17 +0100
16/Mar/2021:15:41:42 +0100
16/Mar/2021:15:41:50 +0100
16/Mar/2021:15:41:56 +0100
16/Mar/2021:15:44:12 +0100
16/Mar/2021:16:00:07 +0100
16/Mar/2021:18:00:57 +0100
16/Mar/2021:20:30:06 +0100
16/Mar/2021:20:42:09 +0100
16/Mar/2021:21:08:23 +0100
16/Mar/2021:21:11:26 +0100
16/Mar/2021:21:40:05 +0100
16/Mar/2021:21:41:17 +0100
16/Mar/2021:23:49:20 +0100
17/Mar/2021:00:09:12 +0100
17/Mar/2021:03:31:49 +0100
15/Mar/2021:06:51:39 +0100
15/Mar/2021:23:57:35 +0100
14/Mar/2021:08:28:05 +0100
14/Mar/2021:17:14:53 +0100
14/Mar/2021:17:43:29 +0100
14/Mar/2021:17:48:34 +0100
14/Mar/2021:19:02:55 +0100
14/Mar/2021:23:45:08 +0100
13/Mar/2021:06:33:59 +0100
13/Mar/2021:06:34:00 +0100
13/Mar/2021:10:24:14 +0100
13/Mar/2021:10:24:23 +0100
13/Mar/2021:11:22:23 +0100
13/Mar/2021:11:53:05 +0100
13/Mar/2021:17:05:56 +0100
13/Mar/2021:22:38:03 +0100
13/Mar/2021:23:39:38 +0100
12/Mar/2021:08:02:10 +0100
12/Mar/2021:08:56:49 +0100
12/Mar/2021:09:17:05 +0100
12/Mar/2021:09:45:29 +0100
12/Mar/2021:09:45:38 +0100
12/Mar/2021:10:32:26 +0100
12/Mar/2021:10:33:26 +0100
12/Mar/2021:10:37:05 +0100
12/Mar/2021:11:30:40 +0100
12/Mar/2021:11:30:59 +0100
12/Mar/2021:11:31:21 +0100
12/Mar/2021:11:31:42 +0100
12/Mar/2021:12:28:03 +0100
12/Mar/2021:16:17:12 +0100
12/Mar/2021:20:53:41 +0100
12/Mar/2021:23:46:03 +0100
13/Mar/2021:00:54:24 +0100
11/Mar/2021:09:39:53 +0100
11/Mar/2021:09:40:01 +0100
11/Mar/2021:09:40:08 +0100
11/Mar/2021:09:40:10 +0100
11/Mar/2021:09:40:31 +0100
11/Mar/2021:09:40:32 +0100
11/Mar/2021:09:41:35 +0100
11/Mar/2021:09:42:24 +0100
11/Mar/2021:09:43:00 +0100
11/Mar/2021:09:43:38 +0100
11/Mar/2021:09:44:36 +0100
11/Mar/2021:10:28:48 +0100
11/Mar/2021:10:30:28 +0100
11/Mar/2021:10:30:57 +0100
11/Mar/2021:10:30:59 +0100
11/Mar/2021:10:34:35 +0100
11/Mar/2021:12:42:23 +0100
11/Mar/2021:12:42:28 +0100
11/Mar/2021:12:42:30 +0100
11/Mar/2021:13:25:06 +0100
11/Mar/2021:13:25:09 +0100
11/Mar/2021:13:25:12 +0100
11/Mar/2021:14:45:21 +0100
11/Mar/2021:16:17:52 +0100
11/Mar/2021:16:26:35 +0100
11/Mar/2021:16:26:45 +0100
11/Mar/2021:16:30:28 +0100
11/Mar/2021:17:31:12 +0100
11/Mar/2021:17:46:04 +0100
11/Mar/2021:17:53:08 +0100
11/Mar/2021:19:51:09 +0100
11/Mar/2021:20:13:45 +0100
11/Mar/2021:22:06:54 +0100
10/Mar/2021:08:19:38 +0100
10/Mar/2021:08:35:03 +0100
10/Mar/2021:08:57:30 +0100
10/Mar/2021:08:57:56 +0100
10/Mar/2021:09:47:11 +0100
10/Mar/2021:09:48:26 +0100
10/Mar/2021:10:05:53 +0100
10/Mar/2021:21:44:53 +0100
10/Mar/2021:23:53:49 +0100
11/Mar/2021:00:10:41 +0100
11/Mar/2021:00:10:44 +0100
09/Mar/2021:10:13:09 +0100
09/Mar/2021:10:13:12 +0100
09/Mar/2021:11:21:59 +0100
09/Mar/2021:11:40:01 +0100
09/Mar/2021:11:58:37 +0100
09/Mar/2021:12:04:22 +0100
09/Mar/2021:12:20:57 +0100
09/Mar/2021:12:43:54 +0100
09/Mar/2021:12:46:36 +0100
09/Mar/2021:12:47:30 +0100
09/Mar/2021:13:14:25 +0100
09/Mar/2021:13:33:34 +0100
09/Mar/2021:14:32:28 +0100
09/Mar/2021:14:43:13 +0100
09/Mar/2021:18:07:19 +0100
09/Mar/2021:20:02:33 +0100
06/Apr/2021:01:30:09 +0200
05/Apr/2021:02:00:35 +0200
03/Apr/2021:10:23:14 +0200
03/Apr/2021:13:01:00 +0200
04/Apr/2021:01:37:04 +0200
02/Apr/2021:10:26:24 +0200
02/Apr/2021:15:56:15 +0200
03/Apr/2021:01:41:34 +0200
01/Apr/2021:10:12:39 +0200
02/Apr/2021:01:42:10 +0200
31/Mar/2021:11:27:55 +0200
31/Mar/2021:11:30:04 +0200
31/Mar/2021:23:38:26 +0200
01/Apr/2021:01:40:03 +0200
30/Mar/2021:12:51:26 +0200
31/Mar/2021:01:25:09 +0200
29/Mar/2021:06:40:35 +0200
29/Mar/2021:22:53:04 +0200
30/Mar/2021:01:43:14 +0200
